understand_wrangle – Hands-on Workshop on Research Methodology using R: NHSRC 2024
…
 [1] "child_weight_cat"     "maternal_age"         "maternal_weight"     
 [4] "race"                 "smoke"                "number_preterm"      
 [7] "hypertension"         "uterine_irritability" "health_visits"       
[10] "birth_weight"        

1.9.2 Select only maternal weight, smoking, and birth weight

Code

df |> 
  select(maternal_weight,
         smoke,
         birth_weight)

# A tibble: 189 × 3
   maternal_weight smoke birth_weight
             <dbl> <dbl>        <dbl>
 1             182     0         2523
 2             155     0         2551
 3             105     1         2557
 4             108     1         2594
 5             107     1         2600
 6             124     0         2622
 7             118     0         2637
 8             103     0         2637
 9             123     1         2663
10             113     1         2665
# ℹ 179 more rows
…
1.9.6 Filter dataset for only mothers with Black race

Code

df |> 
  filter(race_cat == "Black")

# A tibble: 26 × 12
   child_weight_cat maternal_age maternal_weight  race smoke number_preterm
   <fct>                   <dbl>           <dbl> <dbl> <dbl>          <dbl>
 1 Normal                     19             182     2     0              0
 2 Normal                     15              98     2     0              0
 3 Normal                     26             168     2     1              0
 4 Normal                     17             113     2     0              0
 5 Normal                     17             113     2     0              0
 6 Normal                     35             121     2     1              1
 7 Normal                     25             125     2     0              0
 8 Normal                     21             185     2     1              0
 9 Normal                     23             130     2     0              0
10 Normal                     22             158     2     0              1
# ℹ 16 more rows
# ℹ 6 more variables: hypertension <dbl>, uterine_irritability <dbl>,
#   health_visits <dbl>, birth_weight <dbl>, smoke_cat <fct>, race_cat <fct>

1.9.7 Group dataset by category of maternal race.

Most data operations are done on groups defined by variables. group_by() takes an existing tbl and converts it into a grouped tbl where operations are performed “by group”.

Code

df |> 
  group_by(race_cat)

# A tibble: 189 × 12
# Groups:   race_cat [3]
   child_weight_cat maternal_age maternal_weight  race smoke number_preterm
   <fct>                   <dbl>           <dbl> <dbl> <dbl>          <dbl>
 1 Normal                     19             182     2     0              0
 2 Normal                     33             155     3     0              0
 3 Normal                     20             105     1     1              0
 4 Normal                     21             108     1     1              0
 5 Normal                     18             107     1     1              0
 6 Normal                     21             124     3     0              0
 7 Normal                     22             118     1     0              0
 8 Normal                     17             103     3     0              0
 9 Normal                     29             123     1     1              0
10 Normal                     26             113     1     1              0
# ℹ 179 more rows
# ℹ 6 more variables: hypertension <dbl>, uterine_irritability <dbl>,
#   health_visits <dbl>, birth_weight <dbl>, smoke_cat <fct>, race_cat <fct>
…
